[
    {
        "id": "362351",
        "totoId": "487906",
        "infoId": "153584",
        "round": {
            "id": "1835010100",
            "place": "1",
            "active": true
        },
        "sport": {
            "id": "2",
            "name": "\u05db\u05d3\u05d5\u05e8\u05d2\u05dc"
        },
        "country": {
            "id": "656",
            "name": "\u05de\u05d3\u05d9\u05e0\u05d4"
        },
        "league": {
            "name": "\u05dc\u05d9\u05d2\u05d4"
        },
        "tv": {
            "id": "1",
            "name": "\u05e2\u05e8\u05d5\u05e5 5",
            "link": "http:\/\/www.sport5.co.il\/"
        },
        "ranks": {
            "moment": [
                "-1",
                "3",
                "-2",
                "-4",
                "-0.67",
                "1",
                "2",
                "-1",
                "-2",
                "0.00",
                "2",
                "-1",
                "1",
                "2",
                "0.67"
            ],
            "power": [
                "-0.20",
                "1.60",
                "0.00",
                "0.13",
                "-0.67"
            ],
            "scores": [
                "3.50",
                "3.40",
                "1.73",
                "1.63",
                "2.5000",
                "3.5000",
                "1",
                "1"
            ]
        },
        "bet": {
            "type": {
                "id": "3",
                "name": "2X1"
            },
            "single": true,
            "double": true,
            "period": {
                "id": "1",
                "name": "90 \u05d3\u05e7'",
                "mustShow": false
            },
            "1": {
                "current": "2.35",
                "changePercent": 0,
                "won": false
            },
            "X": {
                "current": "2.70",
                "changePercent": 0,
                "won": false
            },
            "2": {
                "current": "2.65",
                "changePercent": 0,
                "won": false
            },
            "description": {
                "prefix": "",
                "value": "\u05d4\u05e4\u05d5\u05e2\u05dc \u05d1\u05d0\u05e8 \u05e9\u05d1\u05e2 - \u05de\u05db\u05d1\u05d9 \u05ea\u05dc \u05d0\u05d1\u05d9\u05d1"
            },
            "openForBets": true
        },
        "isFather": "true",
        "childs": 0,
        "hasExtraData": true,
        "time": "2018-09-02 21:00:00",
        "status": {
            "color": "green",
            "title": "",
            "description": "\u05e8\u05d0\u05e9\u05d5\u05df 21:00"
        },
        "result": "",
        "liveThings": {
            "eventsTitle": "\u05d0\u05d9\u05e8\u05d5\u05e2\u05d9\u05dd",
            "events": [],
            "stats": []
        },
        "home": {
            "id": "396",
            "name": "\u05d4\u05e4\u05d5\u05e2\u05dc \u05d1\u05d0\u05e8 \u05e9\u05d1\u05e2"
        },
        "guest": {
            "id": "311",
            "name": "\u05de\u05db\u05d1\u05d9 \u05ea\u05dc \u05d0\u05d1\u05d9\u05d1"
        }
    },
    {
        "id": "362291",
        "totoId": "487930",
        "infoId": "153534",
        "round": {
            "id": "1835010100",
            "place": "2",
            "active": true
        },
        "sport": {
            "id": "2",
            "name": "\u05db\u05d3\u05d5\u05e8\u05d2\u05dc"
        },
        "country": {
            "id": "656",
            "name": "\u05de\u05d3\u05d9\u05e0\u05d4"
        },
        "league": {
            "name": "\u05dc\u05d9\u05d2\u05d4"
        },
        "tv": {
            "id": "4",
            "name": "5 Live",
            "link": "http:\/\/www.sport5.co.il\/articles.aspx?FolderID=378&docID=98599&lang=HE"
        },
        "ranks": {
            "moment": [
                "-3",
                "0",
                "4",
                "4",
                "-0.34",
                "-1",
                "1",
                "2",
                "2",
                "0.33",
                "2",
                "1",
                "-2",
                "-2",
                "0.67"
            ],
            "power": [
                "-0.90",
                "-0.40",
                "-0.33",
                "-0.25",
                "-1.67"
            ],
            "scores": [
                "2.85",
                "3.20",
                "2.87",
                "3.25",
                "3.0000",
                "2.0000",
                "0",
                "3"
            ]
        },
        "bet": {
            "type": {
                "id": "3",
                "name": "2X1"
            },
            "single": true,
            "double": true,
            "period": {
                "id": "1",
                "name": "90 \u05d3\u05e7'",
                "mustShow": false
            },
            "1": {
                "current": "3.00",
                "changePercent": 0,
                "won": false
            },
            "X": {
                "current": "2.90",
                "changePercent": 0,
                "won": false
            },
            "2": {
                "current": "2.00",
                "changePercent": 0,
                "won": false
            },
            "description": {
                "prefix": "",
                "value": "\u05d1\u05e0\u05d9 \u05d9\u05d4\u05d5\u05d3\u05d4 \u05ea\u05d0 - \u05de\u05db\u05d1\u05d9 \u05e4\u05ea\u05d7 \u05ea\u05e7\u05d5\u05d4"
            },
            "openForBets": true
        },
        "isFather": "true",
        "childs": 0,
        "hasExtraData": true,
        "time": "2018-09-02 19:00:00",
        "status": {
            "color": "green",
            "title": "",
            "description": "\u05e8\u05d0\u05e9\u05d5\u05df 19:00"
        },
        "result": "",
        "liveThings": {
            "eventsTitle": "\u05d0\u05d9\u05e8\u05d5\u05e2\u05d9\u05dd",
            "events": [],
            "stats": []
        },
        "home": {
            "id": "921",
            "name": "\u05d1\u05e0\u05d9 \u05d9\u05d4\u05d5\u05d3\u05d4 \u05ea\u05d0"
        },
        "guest": {
            "id": "1270",
            "name": "\u05de\u05db\u05d1\u05d9 \u05e4\u05ea\u05d7 \u05ea\u05e7\u05d5\u05d4"
        }
    },
    {
        "id": "362073",
        "totoId": "487913",
        "infoId": "153362",
        "round": {
            "id": "1835010700",
            "place": "3",
            "active": true
        },
        "sport": {
            "id": "2",
            "name": "\u05db\u05d3\u05d5\u05e8\u05d2\u05dc"
        },
        "country": {
            "id": "656",
            "name": "\u05de\u05d3\u05d9\u05e0\u05d4"
        },
        "league": {
            "name": "\u05dc\u05d9\u05d2\u05d4"
        },
        "tv": {
            "id": "22",
            "name": "\u05e1\u05e4\u05d5\u05e8\u05d84",
            "link": "http:\/\/sport1.maariv.co.il\/Broadcast-schedule"
        },
        "ranks": {
            "moment": [
                "-3",
                "3",
                "-2",
                "-2",
                "0.34",
                "-2",
                "2",
                "-1",
                "-1",
                "-0.33",
                "1",
                "-1",
                "1",
                "1",
                "-0.67"
            ],
            "power": [
                "0.60",
                "1.40",
                "0.93",
                "0.86",
                "-1.33"
            ],
            "scores": [
                "3.10",
                "2.70",
                "2.80",
                "2.57",
                "4.0000",
                "2.0000",
                "6",
                "0"
            ]
        },
        "bet": {
            "type": {
                "id": "3",
                "name": "2X1"
            },
            "single": true,
            "double": true,
            "period": {
                "id": "1",
                "name": "90 \u05d3\u05e7'",
                "mustShow": false
            },
            "1": {
                "current": "3.00",
                "changePercent": 20,
                "won": false
            },
            "X": {
                "current": "2.80",
                "changePercent": 6,
                "won": false
            },
            "2": {
                "current": "2.05",
                "changePercent": -18,
                "won": false
            },
            "description": {
                "prefix": "",
                "value": "\u05d4\u05e4\u05d5\u05e2\u05dc \u05ea\u05dc \u05d0\u05d1\u05d9\u05d1 - \u05d4\u05e4\u05d5\u05e2\u05dc \u05d7\u05d9\u05e4\u05d4"
            },
            "openForBets": true
        },
        "isFather": "true",
        "childs": 0,
        "hasExtraData": true,
        "time": "2018-09-01 20:45:00",
        "status": {
            "color": "green",
            "title": "",
            "description": "\u05d4\u05d9\u05d5\u05dd 20:45"
        },
        "result": "",
        "liveThings": {
            "eventsTitle": "\u05d0\u05d9\u05e8\u05d5\u05e2\u05d9\u05dd",
            "events": [],
            "stats": []
        },
        "home": {
            "id": "920",
            "name": "\u05d4\u05e4\u05d5\u05e2\u05dc \u05ea\u05dc \u05d0\u05d1\u05d9\u05d1"
        },
        "guest": {
            "id": "1009",
            "name": "\u05d4\u05e4\u05d5\u05e2\u05dc \u05d7\u05d9\u05e4\u05d4"
        }
    },
    {
        "id": "362072",
        "totoId": "487934",
        "infoId": "153361",
        "round": {
            "id": "1835010700",
            "place": "4",
            "active": true
        },
        "sport": {
            "id": "2",
            "name": "\u05db\u05d3\u05d5\u05e8\u05d2\u05dc"
        },
        "country": {
            "id": "656",
            "name": "\u05de\u05d3\u05d9\u05e0\u05d4"
        },
        "league": {
            "name": "\u05dc\u05d9\u05d2\u05d4"
        },
        "tv": {
            "id": "21",
            "name": "\u05e1\u05e4\u05d5\u05e8\u05d83",
            "link": "http:\/\/sport1.maariv.co.il\/Broadcast-schedule"
        },
        "ranks": {
            "moment": [
                "-3",
                "0",
                "-2",
                "-2",
                "-1.67",
                "-2",
                "1",
                "-1",
                "-1",
                "-0.67",
                "1",
                "1",
                "1",
                "1",
                "1.00"
            ],
            "power": [
                "-0.70",
                "0.00",
                "0.27",
                "0.20",
                "-2.00"
            ],
            "scores": [
                "2.85",
                "2.80",
                "2.00",
                "2.60",
                "2.5000",
                "1.0000",
                "2",
                "2"
            ]
        },
        "bet": {
            "type": {
                "id": "3",
                "name": "2X1"
            },
            "single": true,
            "double": true,
            "period": {
                "id": "1",
                "name": "90 \u05d3\u05e7'",
                "mustShow": false
            },
            "1": {
                "current": "1.80",
                "changePercent": 0,
                "won": false
            },
            "X": {
                "current": "3.00",
                "changePercent": 0,
                "won": false
            },
            "2": {
                "current": "3.50",
                "changePercent": 0,
                "won": false
            },
            "description": {
                "prefix": "",
                "value": "\u05de\u05db\u05d1\u05d9 \u05e0\u05ea\u05e0\u05d9\u05d4 - \u05d1\u05e0\u05d9 \u05e1\u05db\u05e0\u05d9\u05df"
            },
            "openForBets": true
        },
        "isFather": "true",
        "childs": 0,
        "hasExtraData": true,
        "time": "2018-09-01 20:00:00",
        "status": {
            "color": "green",
            "title": "",
            "description": "\u05d4\u05d9\u05d5\u05dd 20:00"
        },
        "result": "",
        "liveThings": {
            "eventsTitle": "\u05d0\u05d9\u05e8\u05d5\u05e2\u05d9\u05dd",
            "events": [],
            "stats": []
        },
        "home": {
            "id": "1007",
            "name": "\u05de\u05db\u05d1\u05d9 \u05e0\u05ea\u05e0\u05d9\u05d4"
        },
        "guest": {
            "id": "1525",
            "name": "\u05d1\u05e0\u05d9 \u05e1\u05db\u05e0\u05d9\u05df"
        }
    },
    {
        "id": "362068",
        "totoId": "487940",
        "infoId": "153357",
        "round": {
            "id": "1835010700",
            "place": "5",
            "active": true
        },
        "sport": {
            "id": "2",
            "name": "\u05db\u05d3\u05d5\u05e8\u05d2\u05dc"
        },
        "country": {
            "id": "656",
            "name": "\u05de\u05d3\u05d9\u05e0\u05d4"
        },
        "league": {
            "name": "\u05dc\u05d9\u05d2\u05d4"
        },
        "tv": {
            "id": "22",
            "name": "\u05e1\u05e4\u05d5\u05e8\u05d84",
            "link": "http:\/\/sport1.maariv.co.il\/Broadcast-schedule"
        },
        "ranks": {
            "moment": [
                "-2",
                "4",
                "-2",
                "2",
                "3.33",
                "-1",
                "2",
                "-1",
                "1",
                "1.33",
                "1",
                "-2",
                "1",
                "-1",
                "-2.00"
            ],
            "power": [
                "1.40",
                "1.60",
                "0.53",
                "1.14",
                "0.67"
            ],
            "scores": [
                "2.60",
                "3.00",
                "2.40",
                "2.29",
                "1.5000",
                "5.5000",
                "3",
                "1"
            ]
        },
        "bet": {
            "type": {
                "id": "3",
                "name": "2X1"
            },
            "single": true,
            "double": true,
            "period": {
                "id": "1",
                "name": "90 \u05d3\u05e7'",
                "mustShow": false
            },
            "1": {
                "current": "1.35",
                "changePercent": -10,
                "won": false
            },
            "X": {
                "current": "3.65",
                "changePercent": 11,
                "won": false
            },
            "2": {
                "current": "6.20",
                "changePercent": 27,
                "won": false
            },
            "description": {
                "prefix": "",
                "value": "\u05de\u05db\u05d1\u05d9 \u05d7\u05d9\u05e4\u05d4 - \u05de.\u05e1. \u05d0\u05e9\u05d3\u05d5\u05d3"
            },
            "openForBets": true
        },
        "isFather": "true",
        "childs": 0,
        "hasExtraData": true,
        "time": "2018-09-01 18:45:00",
        "status": {
            "color": "yellow",
            "title": "18:45",
            "description": "45'"
        },
        "result": "0 - 0",
        "liveThings": {
            "eventsTitle": "\u05d0\u05d9\u05e8\u05d5\u05e2\u05d9\u05dd",
            "events": [
                [
                    "localteam",
                    "24545641",
                    "yellowcard",
                    33,
                    0,
                    "",
                    ""
                ]
            ],
            "stats": []
        },
        "home": {
            "id": "1008",
            "name": "\u05de\u05db\u05d1\u05d9 \u05d7\u05d9\u05e4\u05d4"
        },
        "guest": {
            "id": "1380",
            "name": "\u05de.\u05e1. \u05d0\u05e9\u05d3\u05d5\u05d3"
        }
    },
    {
        "id": "362066",
        "totoId": "487922",
        "infoId": "153355",
        "round": {
            "id": "1835010700",
            "place": "6",
            "active": true
        },
        "sport": {
            "id": "2",
            "name": "\u05db\u05d3\u05d5\u05e8\u05d2\u05dc"
        },
        "country": {
            "id": "656",
            "name": "\u05de\u05d3\u05d9\u05e0\u05d4"
        },
        "league": {
            "name": "\u05dc\u05d9\u05d2\u05d4"
        },
        "tv": {
            "id": "4",
            "name": "5 Live",
            "link": "http:\/\/www.sport5.co.il\/articles.aspx?FolderID=378&docID=98599&lang=HE"
        },
        "ranks": {
            "moment": [
                "2",
                "3",
                "8",
                "2",
                "1.66",
                "1",
                "2",
                "4",
                "1",
                "1.33",
                "-1",
                "-1",
                "-4",
                "-1",
                "-0.33"
            ],
            "power": [
                "-0.10",
                "0.80",
                "-0.13",
                "-0.67",
                "0.33"
            ],
            "scores": [
                "2.45",
                "2.40",
                "1.73",
                "1.33",
                "1.0000",
                "1.0000",
                "1",
                "1"
            ]
        },
        "bet": {
            "type": {
                "id": "3",
                "name": "2X1"
            },
            "single": true,
            "double": true,
            "period": {
                "id": "1",
                "name": "90 \u05d3\u05e7'",
                "mustShow": false
            },
            "1": {
                "current": "3.05",
                "changePercent": 3,
                "won": false
            },
            "X": {
                "current": "2.80",
                "changePercent": 4,
                "won": false
            },
            "2": {
                "current": "2.05",
                "changePercent": -5,
                "won": false
            },
            "description": {
                "prefix": "",
                "value": "\u05d4\u05e4\u05d5\u05e2\u05dc \u05e8\u05e2\u05e0\u05e0\u05d4 - \u05e2\u05d9\u05e8\u05d5\u05e0\u05d9 \u05e7\u05e8\u05d9\u05ea \u05e9\u05de\u05d5\u05e0\u05d4"
            },
            "openForBets": true
        },
        "isFather": "true",
        "childs": 0,
        "hasExtraData": true,
        "time": "2018-09-01 18:00:00",
        "status": {
            "color": "yellow",
            "title": "18:00",
            "description": "72'"
        },
        "result": "1 - 1",
        "liveThings": {
            "eventsTitle": "\u05d0\u05d9\u05e8\u05d5\u05e2\u05d9\u05dd",
            "events": [
                [
                    "visitorteam",
                    "24545631",
                    "yellowcard",
                    11,
                    0,
                    "",
                    ""
                ],
                [
                    "localteam",
                    "24545632",
                    "goal",
                    13,
                    0,
                    "M. Oremus",
                    ""
                ],
                [
                    "visitorteam",
                    "24545633",
                    "goal",
                    40,
                    0,
                    "A. Abaid",
                    ""
                ],
                [
                    "visitorteam",
                    "24545634",
                    "yellowred",
                    52,
                    0,
                    "H. Goldenberg",
                    ""
                ],
                [
                    "visitorteam",
                    "24545635",
                    "yellowcard",
                    61,
                    0,
                    "",
                    ""
                ]
            ],
            "stats": []
        },
        "home": {
            "id": "1006",
            "name": "\u05d4\u05e4\u05d5\u05e2\u05dc \u05e8\u05e2\u05e0\u05e0\u05d4"
        },
        "guest": {
            "id": "791",
            "name": "\u05e2\u05d9\u05e8\u05d5\u05e0\u05d9 \u05e7\u05e8\u05d9\u05ea \u05e9\u05de\u05d5\u05e0\u05d4"
        }
    },
    {
        "id": "362062",
        "totoId": "487637",
        "infoId": "153351",
        "round": {
            "id": "1835010700",
            "place": "7",
            "active": true
        },
        "sport": {
            "id": "2",
            "name": "\u05db\u05d3\u05d5\u05e8\u05d2\u05dc"
        },
        "country": {
            "id": "651",
            "name": "\u05de\u05d3\u05d9\u05e0\u05d4"
        },
        "league": {
            "name": "\u05dc\u05d9\u05d2\u05d4"
        },
        "tv": {
            "id": null,
            "name": null,
            "link": null
        },
        "ranks": {
            "moment": [
                "-4",
                "0",
                "10",
                "4",
                "-1.00",
                "-2",
                "-1",
                "5",
                "2",
                "-0.67",
                "2",
                "-1",
                "-5",
                "-2",
                "0.33"
            ],
            "power": [
                "-1.40",
                "0.00",
                "1.00",
                "1.40",
                "-1.00"
            ],
            "scores": [
                "2.50",
                "2.40",
                "2.40",
                "2.60",
                "1.5000",
                "2.5000",
                "3",
                "3"
            ]
        },
        "bet": {
            "type": {
                "id": "3",
                "name": "2X1"
            },
            "single": true,
            "double": true,
            "period": {
                "id": "1",
                "name": "90 \u05d3\u05e7'",
                "mustShow": false
            },
            "1": {
                "current": "1.90",
                "changePercent": -10,
                "won": false
            },
            "X": {
                "current": "3.00",
                "changePercent": 5,
                "won": true
            },
            "2": {
                "current": "3.15",
                "changePercent": 11,
                "won": false
            },
            "description": {
                "prefix": "",
                "value": "\u05d1\u05e8\u05d9\u05d9\u05d8\u05d5\u05df - \u05e4\u05d5\u05dc\u05d4\u05d0\u05dd"
            },
            "openForBets": false
        },
        "isFather": "true",
        "childs": 0,
        "hasExtraData": true,
        "time": "2018-09-01 17:00:00",
        "status": {
            "color": "red",
            "title": "17:00 01.09.2018",
            "description": "\u05d4\u05e1\u05ea\u05d9\u05d9\u05dd"
        },
        "result": "2 - 2",
        "liveThings": {
            "eventsTitle": "\u05d0\u05d9\u05e8\u05d5\u05e2\u05d9\u05dd",
            "events": [
                [
                    "localteam",
                    "30122781",
                    "pen miss",
                    25,
                    0,
                    "A. Gross P.43'Schurrle (\u05d4.\u05e4\u05e0\u05d3\u05dc)",
                    ""
                ],
                [
                    "localteam",
                    "30122782",
                    "yellowcard",
                    45,
                    0,
                    "D. Stephens",
                    ""
                ],
                [
                    "localteam",
                    "30122783",
                    "yellowcard",
                    53,
                    0,
                    "D. Propper",
                    ""
                ],
                [
                    "localteam",
                    "30122784",
                    "yellowcard",
                    59,
                    0,
                    "G. Murray",
                    ""
                ],
                [
                    "localteam",
                    0,
                    "sub",
                    60,
                    0,
                    "Yves Bissouma",
                    "Pascal Gro\u00df"
                ],
                [
                    "visitorteam",
                    "30122786",
                    "goal",
                    62,
                    0,
                    "A. Mitrovic",
                    ""
                ],
                [
                    "localteam",
                    "30122787",
                    "goal",
                    67,
                    0,
                    "G. Murray",
                    ""
                ],
                [
                    "localteam",
                    0,
                    "sub",
                    74,
                    0,
                    "J\u00fcrgen Locadia",
                    "Davy Pr\u00f6pper"
                ],
                [
                    "guestteam",
                    0,
                    "sub",
                    74,
                    0,
                    "Ryan Sessegnon",
                    "Luciano Vietto"
                ],
                [
                    "guestteam",
                    0,
                    "sub",
                    74,
                    0,
                    "Stefan Johansen",
                    "Andr\u00e9 Zambo Anguissa"
                ],
                [
                    "localteam",
                    0,
                    "sub",
                    75,
                    0,
                    "Alireza Jahanbakhsh",
                    "Anthony Knockaert"
                ],
                [
                    "visitorteam",
                    "301227812",
                    "yellowcard",
                    82,
                    0,
                    "S. Johansen",
                    ""
                ],
                [
                    "visitorteam",
                    "301227813",
                    "yellowcard",
                    84,
                    0,
                    "A. Mitrovic",
                    ""
                ],
                [
                    "localteam",
                    "301227814",
                    "goal",
                    84,
                    0,
                    "G. Murray (\u05e4\u05e0\u05d3\u05dc)",
                    ""
                ],
                [
                    "guestteam",
                    0,
                    "sub",
                    87,
                    0,
                    "Calum Chambers",
                    "Andr\u00e9 Sch\u00fcrrle"
                ],
                [
                    "visitorteam",
                    "301227816",
                    "yellowcard",
                    90,
                    5,
                    "M. Le Marchand",
                    ""
                ]
            ],
            "stats": [
                [
                    "\u05d1\u05e2\u05d9\u05d8\u05d5\u05ea",
                    "13",
                    "10"
                ],
                [
                    "\u05d1\u05e2\u05d9\u05d8\u05d5\u05ea \u05dc\u05de\u05e1\u05d2\u05e8\u05ea",
                    "4",
                    "5"
                ],
                [
                    "\u05e2\u05d1\u05d9\u05e8\u05d5\u05ea",
                    "12",
                    "13"
                ],
                [
                    "\u05e7\u05e8\u05e0\u05d5\u05ea",
                    "7",
                    "1"
                ],
                [
                    "\u05e0\u05d1\u05d3\u05dc\u05d9\u05dd",
                    "2",
                    "4"
                ],
                [
                    "\u05d0\u05d7\u05d6\u05e7\u05ea \u05db\u05d3\u05d5\u05e8",
                    "40%",
                    "60%"
                ],
                [
                    "\u05e6\u05d4\u05d5\u05d1\u05d9\u05dd",
                    "3",
                    "2"
                ],
                [
                    "\u05d0\u05d3\u05d5\u05de\u05d9\u05dd",
                    "0",
                    "0"
                ],
                [
                    "\u05d4\u05e6\u05dc\u05d5\u05ea",
                    "3",
                    "3"
                ]
            ]
        },
        "home": {
            "id": "1311",
            "name": "\u05d1\u05e8\u05d9\u05d9\u05d8\u05d5\u05df"
        },
        "guest": {
            "id": "1316",
            "name": "\u05e4\u05d5\u05dc\u05d4\u05d0\u05dd"
        }
    },
    {
        "id": "362063",
        "totoId": "487646",
        "infoId": "153352",
        "round": {
            "id": "1835010700",
            "place": "8",
            "active": true
        },
        "sport": {
            "id": "2",
            "name": "\u05db\u05d3\u05d5\u05e8\u05d2\u05dc"
        },
        "country": {
            "id": "651",
            "name": "\u05de\u05d3\u05d9\u05e0\u05d4"
        },
        "league": {
            "name": "\u05dc\u05d9\u05d2\u05d4"
        },
        "tv": {
            "id": "8",
            "name": "\u05e1\u05e4\u05d5\u05e8\u05d81",
            "link": "http:\/\/sport1.maariv.co.il\/"
        },
        "ranks": {
            "moment": [
                "0",
                "-2",
                "4",
                "4",
                "-0.66",
                "1",
                "-1",
                "2",
                "2",
                "-1.33",
                "1",
                "1",
                "-2",
                "-2",
                "-0.67"
            ],
            "power": [
                "-1.30",
                "-0.80",
                "0.40",
                "0.38",
                "-0.33"
            ],
            "scores": [
                "2.75",
                "2.60",
                "2.53",
                "2.13",
                "3.0000",
                "2.5000",
                "1",
                "1"
            ]
        },
        "bet": {
            "type": {
                "id": "3",
                "name": "2X1"
            },
            "single": true,
            "double": true,
            "period": {
                "id": "1",
                "name": "90 \u05d3\u05e7'",
                "mustShow": false
            },
            "1": {
                "current": "2.10",
                "changePercent": -11,
                "won": false
            },
            "X": {
                "current": "2.90",
                "changePercent": 2,
                "won": false
            },
            "2": {
                "current": "2.80",
                "changePercent": 12,
                "won": true
            },
            "description": {
                "prefix": "",
                "value": "\u05d5\u05d5\u05e1\u05d8\u05d4\u05d0\u05dd - \u05d5\u05d5\u05dc\u05d1\u05e1"
            },
            "openForBets": false
        },
        "isFather": "true",
        "childs": 0,
        "hasExtraData": true,
        "time": "2018-09-01 17:00:00",
        "status": {
            "color": "red",
            "title": "17:00 01.09.2018",
            "description": "\u05d4\u05e1\u05ea\u05d9\u05d9\u05dd"
        },
        "result": "0 - 1",
        "liveThings": {
            "eventsTitle": "\u05d0\u05d9\u05e8\u05d5\u05e2\u05d9\u05dd",
            "events": [
                [
                    "localteam",
                    "30128701",
                    "yellowcard",
                    24,
                    0,
                    "R. Fredericks",
                    ""
                ],
                [
                    "localteam",
                    0,
                    "sub",
                    46,
                    0,
                    "Andriy Yarmolenko",
                    "Robert Snodgrass"
                ],
                [
                    "localteam",
                    "30128703",
                    "yellowcard",
                    59,
                    0,
                    "A. Cresswell",
                    ""
                ],
                [
                    "guestteam",
                    0,
                    "sub",
                    62,
                    0,
                    "Adama Traor\u00e9",
                    "Diogo Jota"
                ],
                [
                    "localteam",
                    0,
                    "sub",
                    64,
                    0,
                    "Pedro Obiang",
                    "Jack Wilshere"
                ],
                [
                    "guestteam",
                    0,
                    "sub",
                    72,
                    0,
                    "L\u00e9o Bonatini",
                    "H\u00e9lder Costa"
                ],
                [
                    "localteam",
                    0,
                    "sub",
                    75,
                    0,
                    "Javier Hern\u00e1ndez",
                    "Michail Antonio"
                ],
                [
                    "visitorteam",
                    "30128708",
                    "yellowcard",
                    79,
                    0,
                    "R. Bennett",
                    ""
                ],
                [
                    "guestteam",
                    0,
                    "sub",
                    87,
                    0,
                    "R\u00faben Vinagre",
                    "Ra\u00fal Jim\u00e9nez"
                ],
                [
                    "visitorteam",
                    "301287010",
                    "goal",
                    90,
                    3,
                    "A. Traore",
                    ""
                ]
            ],
            "stats": [
                [
                    "\u05d1\u05e2\u05d9\u05d8\u05d5\u05ea",
                    "13",
                    "14"
                ],
                [
                    "\u05d1\u05e2\u05d9\u05d8\u05d5\u05ea \u05dc\u05de\u05e1\u05d2\u05e8\u05ea",
                    "3",
                    "5"
                ],
                [
                    "\u05e2\u05d1\u05d9\u05e8\u05d5\u05ea",
                    "10",
                    "9"
                ],
                [
                    "\u05e7\u05e8\u05e0\u05d5\u05ea",
                    "4",
                    "4"
                ],
                [
                    "\u05e0\u05d1\u05d3\u05dc\u05d9\u05dd",
                    "1",
                    "0"
                ],
                [
                    "\u05d0\u05d7\u05d6\u05e7\u05ea \u05db\u05d3\u05d5\u05e8",
                    "46%",
                    "54%"
                ],
                [
                    "\u05e6\u05d4\u05d5\u05d1\u05d9\u05dd",
                    "2",
                    "1"
                ],
                [
                    "\u05d0\u05d3\u05d5\u05de\u05d9\u05dd",
                    "0",
                    "0"
                ],
                [
                    "\u05d4\u05e6\u05dc\u05d5\u05ea",
                    "5",
                    "3"
                ]
            ]
        },
        "home": {
            "id": "187",
            "name": "\u05d5\u05d5\u05e1\u05d8\u05d4\u05d0\u05dd"
        },
        "guest": {
            "id": "1329",
            "name": "\u05d5\u05d5\u05dc\u05d1\u05e1"
        }
    },
    {
        "id": "362757",
        "totoId": "488367",
        "infoId": "153777",
        "round": {
            "id": "1835010700",
            "place": "9",
            "active": true
        },
        "sport": {
            "id": "2",
            "name": "\u05db\u05d3\u05d5\u05e8\u05d2\u05dc"
        },
        "country": {
            "id": "650",
            "name": "\u05de\u05d3\u05d9\u05e0\u05d4"
        },
        "league": {
            "name": "\u05dc\u05d9\u05d2\u05d4"
        },
        "tv": {
            "id": null,
            "name": null,
            "link": null
        },
        "ranks": {
            "moment": [
                "-2",
                "-1",
                "-6",
                "-2",
                "1.00",
                "-1",
                "1",
                "-3",
                "-1",
                "1.33",
                "1",
                "2",
                "3",
                "1",
                "0.33"
            ],
            "power": [
                "1.10",
                "0.20",
                "-0.47",
                "0.13",
                "-0.33"
            ],
            "scores": [
                "2.35",
                "1.90",
                "3.13",
                "3.63",
                "2.5000",
                "2.0000",
                "5",
                "5"
            ]
        },
        "bet": {
            "type": {
                "id": "3",
                "name": "2X1"
            },
            "single": true,
            "double": true,
            "period": {
                "id": "1",
                "name": "90 \u05d3\u05e7'",
                "mustShow": false
            },
            "1": {
                "current": "2.40",
                "changePercent": 0,
                "won": false
            },
            "X": {
                "current": "2.70",
                "changePercent": 0,
                "won": false
            },
            "2": {
                "current": "2.60",
                "changePercent": 0,
                "won": false
            },
            "description": {
                "prefix": "",
                "value": "\u05e8\u05d9\u05d9\u05de\u05e1 - \u05de\u05d5\u05e0\u05e4\u05dc\u05d9\u05d9\u05d4"
            },
            "openForBets": true
        },
        "isFather": "true",
        "childs": 0,
        "hasExtraData": true,
        "time": "2018-09-01 21:00:00",
        "status": {
            "color": "green",
            "title": "",
            "description": "\u05d4\u05d9\u05d5\u05dd 21:00"
        },
        "result": "",
        "liveThings": {
            "eventsTitle": "\u05d0\u05d9\u05e8\u05d5\u05e2\u05d9\u05dd",
            "events": [],
            "stats": []
        },
        "home": {
            "id": "1346",
            "name": "\u05e8\u05d9\u05d9\u05de\u05e1"
        },
        "guest": {
            "id": "863",
            "name": "\u05de\u05d5\u05e0\u05e4\u05dc\u05d9\u05d9\u05d4"
        }
    },
    {
        "id": "362233",
        "totoId": "491150",
        "infoId": "153501",
        "round": {
            "id": "1835010100",
            "place": "10",
            "active": true
        },
        "sport": {
            "id": "2",
            "name": "\u05db\u05d3\u05d5\u05e8\u05d2\u05dc"
        },
        "country": {
            "id": "646",
            "name": "\u05de\u05d3\u05d9\u05e0\u05d4"
        },
        "league": {
            "name": "\u05dc\u05d9\u05d2\u05d4"
        },
        "tv": {
            "id": "6",
            "name": "ONE",
            "link": "http:\/\/www.one.co.il\/Cat\/Video\/"
        },
        "ranks": {
            "moment": [
                "-5",
                "-1",
                "2",
                "2",
                "-5.00",
                "-1",
                "1",
                "1",
                "1",
                "-1.33",
                "4",
                "2",
                "-1",
                "-1",
                "3.67"
            ],
            "power": [
                "-0.20",
                "-0.40",
                "-0.13",
                "0.13",
                "-2.33"
            ],
            "scores": [
                "2.00",
                "1.80",
                "1.47",
                "1.63",
                "1.0000",
                "1.0000",
                "0",
                "1"
            ]
        },
        "bet": {
            "type": {
                "id": "3",
                "name": "2X1"
            },
            "single": true,
            "double": true,
            "period": {
                "id": "1",
                "name": "90 \u05d3\u05e7'",
                "mustShow": false
            },
            "1": {
                "current": "2.75",
                "changePercent": 0,
                "won": false
            },
            "X": {
                "current": "2.80",
                "changePercent": 0,
                "won": false
            },
            "2": {
                "current": "2.20",
                "changePercent": 0,
                "won": false
            },
            "description": {
                "prefix": "",
                "value": "\u05d0\u05dc\u05d0\u05d1\u05e1 - \u05d0\u05e1\u05e4\u05e0\u05d9\u05d5\u05dc"
            },
            "openForBets": true
        },
        "isFather": "true",
        "childs": 0,
        "hasExtraData": true,
        "time": "2018-09-02 17:15:00",
        "status": {
            "color": "green",
            "title": "",
            "description": "\u05e8\u05d0\u05e9\u05d5\u05df 17:15"
        },
        "result": "",
        "liveThings": {
            "eventsTitle": "\u05d0\u05d9\u05e8\u05d5\u05e2\u05d9\u05dd",
            "events": [],
            "stats": []
        },
        "home": {
            "id": "848",
            "name": "\u05d0\u05dc\u05d0\u05d1\u05e1"
        },
        "guest": {
            "id": "838",
            "name": "\u05d0\u05e1\u05e4\u05e0\u05d9\u05d5\u05dc"
        }
    },
    {
        "id": "362407",
        "totoId": "491806",
        "infoId": "153605",
        "round": {
            "id": "1835010100",
            "place": "11",
            "active": true
        },
        "sport": {
            "id": "2",
            "name": "\u05db\u05d3\u05d5\u05e8\u05d2\u05dc"
        },
        "country": {
            "id": "646",
            "name": "\u05de\u05d3\u05d9\u05e0\u05d4"
        },
        "league": {
            "name": "\u05dc\u05d9\u05d2\u05d4"
        },
        "tv": {
            "id": "6",
            "name": "ONE",
            "link": "http:\/\/www.one.co.il\/Cat\/Video\/"
        },
        "ranks": {
            "moment": [
                "-10",
                "-6",
                "2",
                "-5",
                "-10.00",
                "-2",
                "-1",
                "1",
                "-2",
                "-2.33",
                "8",
                "5",
                "-1",
                "3",
                "7.67"
            ],
            "power": [
                "-2.10",
                "-2.00",
                "-1.13",
                "-1.00",
                "-2.67"
            ],
            "scores": [
                "2.45",
                "3.20",
                "3.27",
                "2.71",
                "1.5000",
                "2.0000",
                "4",
                "4"
            ]
        },
        "bet": {
            "type": {
                "id": "3",
                "name": "2X1"
            },
            "single": true,
            "double": true,
            "period": {
                "id": "1",
                "name": "90 \u05d3\u05e7'",
                "mustShow": false
            },
            "1": {
                "current": "2.55",
                "changePercent": 0,
                "won": false
            },
            "X": {
                "current": "3.15",
                "changePercent": 0,
                "won": false
            },
            "2": {
                "current": "2.15",
                "changePercent": 0,
                "won": false
            },
            "description": {
                "prefix": "",
                "value": "\u05e8\u05d9\u05d0\u05dc \u05d1\u05d8\u05d9\u05e1 - \u05e1\u05d1\u05d9\u05dc\u05d9\u05d4"
            },
            "openForBets": true
        },
        "isFather": "true",
        "childs": 0,
        "hasExtraData": true,
        "time": "2018-09-02 21:45:00",
        "status": {
            "color": "green",
            "title": "",
            "description": "\u05e8\u05d0\u05e9\u05d5\u05df 21:45"
        },
        "result": "",
        "liveThings": {
            "eventsTitle": "\u05d0\u05d9\u05e8\u05d5\u05e2\u05d9\u05dd",
            "events": [],
            "stats": []
        },
        "home": {
            "id": "798",
            "name": "\u05e8\u05d9\u05d0\u05dc \u05d1\u05d8\u05d9\u05e1"
        },
        "guest": {
            "id": "1460",
            "name": "\u05e1\u05d1\u05d9\u05dc\u05d9\u05d4"
        }
    },
    {
        "id": "362390",
        "totoId": "551311",
        "infoId": "153596",
        "round": {
            "id": "1835010100",
            "place": "12",
            "active": true
        },
        "sport": {
            "id": "2",
            "name": "\u05db\u05d3\u05d5\u05e8\u05d2\u05dc"
        },
        "country": {
            "id": "647",
            "name": "\u05de\u05d3\u05d9\u05e0\u05d4"
        },
        "league": {
            "name": "\u05dc\u05d9\u05d2\u05d4"
        },
        "tv": {
            "id": null,
            "name": null,
            "link": null
        },
        "ranks": {
            "moment": [
                "-1",
                "6",
                "-2",
                "2",
                "1.66",
                "1",
                "2",
                "-1",
                "1",
                "1.33",
                "2",
                "-4",
                "1",
                "-1",
                "-0.33"
            ],
            "power": [
                "0.50",
                "2.20",
                "0.20",
                "1.00",
                "0.33"
            ],
            "scores": [
                "2.65",
                "1.90",
                "2.60",
                "2.60",
                "3.5000",
                "1.0000",
                "1",
                "0"
            ]
        },
        "bet": {
            "type": {
                "id": "3",
                "name": "2X1"
            },
            "single": true,
            "double": true,
            "period": {
                "id": "1",
                "name": "90 \u05d3\u05e7'",
                "mustShow": false
            },
            "1": {
                "current": "1.90",
                "changePercent": 0,
                "won": false
            },
            "X": {
                "current": "2.90",
                "changePercent": 0,
                "won": false
            },
            "2": {
                "current": "3.30",
                "changePercent": 0,
                "won": false
            },
            "description": {
                "prefix": "",
                "value": "\u05e1\u05e1\u05d5\u05d0\u05d5\u05dc\u05d5 - \u05d2\u05e0\u05d5\u05d0\u05d4"
            },
            "openForBets": true
        },
        "isFather": "true",
        "childs": 0,
        "hasExtraData": true,
        "time": "2018-09-02 21:30:00",
        "status": {
            "color": "green",
            "title": "",
            "description": "\u05e8\u05d0\u05e9\u05d5\u05df 21:30"
        },
        "result": "",
        "liveThings": {
            "eventsTitle": "\u05d0\u05d9\u05e8\u05d5\u05e2\u05d9\u05dd",
            "events": [],
            "stats": []
        },
        "home": {
            "id": "828",
            "name": "\u05e1\u05e1\u05d5\u05d0\u05d5\u05dc\u05d5"
        },
        "guest": {
            "id": "801",
            "name": "\u05d2\u05e0\u05d5\u05d0\u05d4"
        }
    },
    {
        "id": "362395",
        "totoId": "473520",
        "infoId": "153597",
        "round": {
            "id": "1835010100",
            "place": "13",
            "active": true
        },
        "sport": {
            "id": "2",
            "name": "\u05db\u05d3\u05d5\u05e8\u05d2\u05dc"
        },
        "country": {
            "id": "647",
            "name": "\u05de\u05d3\u05d9\u05e0\u05d4"
        },
        "league": {
            "name": "\u05dc\u05d9\u05d2\u05d4"
        },
        "tv": {
            "id": null,
            "name": null,
            "link": null
        },
        "ranks": {
            "moment": [
                "-1",
                "0",
                "4",
                "4",
                "0.66",
                "-2",
                "-1",
                "2",
                "2",
                "0.33",
                "-1",
                "-1",
                "-2",
                "-2",
                "-0.33"
            ],
            "power": [
                "-1.10",
                "-0.60",
                "0.33",
                "0.88",
                "-1.00"
            ],
            "scores": [
                "2.95",
                "2.90",
                "2.07",
                "1.88",
                "5.0000",
                "4.0000",
                "4",
                "4"
            ]
        },
        "bet": {
            "type": {
                "id": "3",
                "name": "2X1"
            },
            "single": true,
            "double": true,
            "period": {
                "id": "1",
                "name": "90 \u05d3\u05e7'",
                "mustShow": false
            },
            "1": {
                "current": "2.10",
                "changePercent": 0,
                "won": false
            },
            "X": {
                "current": "2.85",
                "changePercent": 0,
                "won": false
            },
            "2": {
                "current": "2.90",
                "changePercent": 0,
                "won": false
            },
            "description": {
                "prefix": "",
                "value": "\u05e7\u05d9\u05d9\u05d1\u05d5 - \u05d0\u05de\u05e4\u05d5\u05dc\u05d9"
            },
            "openForBets": true
        },
        "isFather": "true",
        "childs": 0,
        "hasExtraData": true,
        "time": "2018-09-02 21:30:00",
        "status": {
            "color": "green",
            "title": "",
            "description": "\u05e8\u05d0\u05e9\u05d5\u05df 21:30"
        },
        "result": "",
        "liveThings": {
            "eventsTitle": "\u05d0\u05d9\u05e8\u05d5\u05e2\u05d9\u05dd",
            "events": [],
            "stats": []
        },
        "home": {
            "id": "829",
            "name": "\u05e7\u05d9\u05d9\u05d1\u05d5"
        },
        "guest": {
            "id": "929",
            "name": "\u05d0\u05de\u05e4\u05d5\u05dc\u05d9"
        }
    },
    {
        "id": "362705",
        "totoId": "487559",
        "infoId": "153769",
        "round": {
            "id": "1835010700",
            "place": "14",
            "active": true
        },
        "sport": {
            "id": "2",
            "name": "\u05db\u05d3\u05d5\u05e8\u05d2\u05dc"
        },
        "country": {
            "id": "645",
            "name": "\u05de\u05d3\u05d9\u05e0\u05d4"
        },
        "league": {
            "name": "\u05dc\u05d9\u05d2\u05d4"
        },
        "tv": {
            "id": null,
            "name": null,
            "link": null
        },
        "ranks": {
            "moment": [
                "0",
                "-1",
                "-2",
                "6",
                "-1.00",
                "1",
                "1",
                "-1",
                "3",
                "0.33",
                "1",
                "2",
                "1",
                "-3",
                "1.33"
            ],
            "power": [
                "-0.30",
                "-0.20",
                "0.80",
                "1.13",
                "-1.00"
            ],
            "scores": [
                "2.75",
                "3.10",
                "2.80",
                "3.13",
                "2.0000",
                "5.0000",
                "3",
                "3"
            ]
        },
        "bet": {
            "type": {
                "id": "3",
                "name": "2X1"
            },
            "single": true,
            "double": true,
            "period": {
                "id": "1",
                "name": "90 \u05d3\u05e7'",
                "mustShow": false
            },
            "1": {
                "current": "1.95",
                "changePercent": -11,
                "won": false
            },
            "X": {
                "current": "3.10",
                "changePercent": 9,
                "won": false
            },
            "2": {
                "current": "2.95",
                "changePercent": 9,
                "won": true
            },
            "description": {
                "prefix": "",
                "value": "\u05d0\u05d9\u05d9\u05e0\u05d8\u05e8\u05db\u05d8 \u05e4\u05e8\u05e0\u05e7\u05e4\u05d5\u05e8\u05d8 - \u05d5\u05e8\u05d3\u05e8 \u05d1\u05e8\u05de\u05df"
            },
            "openForBets": false
        },
        "isFather": "true",
        "childs": 0,
        "hasExtraData": true,
        "time": "2018-09-01 16:30:00",
        "status": {
            "color": "red",
            "title": "16:30 01.09.2018",
            "description": "\u05d4\u05e1\u05ea\u05d9\u05d9\u05dd"
        },
        "result": "1 - 2",
        "liveThings": {
            "eventsTitle": "\u05d0\u05d9\u05e8\u05d5\u05e2\u05d9\u05dd",
            "events": [
                [
                    "localteam",
                    0,
                    "sub",
                    11,
                    0,
                    "Obite Evan Ndicka",
                    "Carlos Salcedo"
                ],
                [
                    "visitorteam",
                    "24563832",
                    "goal",
                    21,
                    0,
                    "Y. Osako",
                    ""
                ],
                [
                    "localteam",
                    "24563833",
                    "redcard",
                    32,
                    0,
                    "J. Willems",
                    ""
                ],
                [
                    "localteam",
                    0,
                    "sub",
                    34,
                    0,
                    "Taleb Tawatha",
                    "Nicolai M\u00fcller"
                ],
                [
                    "localteam",
                    "24563835",
                    "yellowcard",
                    36,
                    0,
                    "M. Gacinovic",
                    ""
                ],
                [
                    "visitorteam",
                    "24563836",
                    "yellowcard",
                    44,
                    0,
                    "P. Bargfrede",
                    ""
                ],
                [
                    "localteam",
                    "24563837",
                    "goal",
                    49,
                    0,
                    "S. Haller (\u05e4\u05e0\u05d3\u05dc)",
                    ""
                ],
                [
                    "guestteam",
                    0,
                    "sub",
                    52,
                    0,
                    "Luca Plogmann",
                    "Ji\u0159\u00ed Pavlenka"
                ],
                [
                    "guestteam",
                    0,
                    "sub",
                    59,
                    0,
                    "Claudio Pizarro",
                    "Martin Harnik"
                ],
                [
                    "localteam",
                    0,
                    "sub",
                    68,
                    0,
                    "Jonathan de Guzm\u00e1n",
                    "Mijat Ga\u0107inovi\u0107"
                ],
                [
                    "visitorteam",
                    "245638311",
                    "yellowcard",
                    81,
                    0,
                    "M. Veljkovic",
                    ""
                ],
                [
                    "guestteam",
                    0,
                    "sub",
                    84,
                    0,
                    "Milot Rashica",
                    "Philipp Bargfrede"
                ],
                [
                    "visitorteam",
                    "245638313",
                    "goal",
                    90,
                    6,
                    "M. Rashica",
                    ""
                ]
            ],
            "stats": [
                [
                    "\u05d1\u05e2\u05d9\u05d8\u05d5\u05ea",
                    "5",
                    "10"
                ],
                [
                    "\u05d1\u05e2\u05d9\u05d8\u05d5\u05ea \u05dc\u05de\u05e1\u05d2\u05e8\u05ea",
                    "1",
                    "6"
                ],
                [
                    "\u05e2\u05d1\u05d9\u05e8\u05d5\u05ea",
                    "8",
                    "14"
                ],
                [
                    "\u05e7\u05e8\u05e0\u05d5\u05ea",
                    "8",
                    "3"
                ],
                [
                    "\u05e0\u05d1\u05d3\u05dc\u05d9\u05dd",
                    "2",
                    "3"
                ],
                [
                    "\u05d0\u05d7\u05d6\u05e7\u05ea \u05db\u05d3\u05d5\u05e8",
                    "43%",
                    "57%"
                ],
                [
                    "\u05e6\u05d4\u05d5\u05d1\u05d9\u05dd",
                    "1",
                    "2"
                ],
                [
                    "\u05d0\u05d3\u05d5\u05de\u05d9\u05dd",
                    "1",
                    "0"
                ],
                [
                    "\u05d4\u05e6\u05dc\u05d5\u05ea",
                    "4",
                    "0"
                ]
            ]
        },
        "home": {
            "id": "833",
            "name": "\u05d0\u05d9\u05d9\u05e0\u05d8\u05e8\u05db\u05d8 \u05e4\u05e8\u05e0\u05e7\u05e4\u05d5\u05e8\u05d8"
        },
        "guest": {
            "id": "1320",
            "name": "\u05d5\u05e8\u05d3\u05e8 \u05d1\u05e8\u05de\u05df"
        }
    },
    {
        "id": "362702",
        "totoId": "487552",
        "infoId": "153768",
        "round": {
            "id": "1835010700",
            "place": "15",
            "active": true
        },
        "sport": {
            "id": "2",
            "name": "\u05db\u05d3\u05d5\u05e8\u05d2\u05dc"
        },
        "country": {
            "id": "645",
            "name": "\u05de\u05d3\u05d9\u05e0\u05d4"
        },
        "league": {
            "name": "\u05dc\u05d9\u05d2\u05d4"
        },
        "tv": {
            "id": null,
            "name": null,
            "link": null
        },
        "ranks": {
            "moment": [
                "0",
                "-2",
                "-2",
                "2",
                "-0.34",
                "2",
                "-1",
                "-1",
                "1",
                "0.33",
                "2",
                "1",
                "1",
                "-1",
                "0.67"
            ],
            "power": [
                "-1.90",
                "-2.20",
                "-0.07",
                "0.13",
                "-3.67"
            ],
            "scores": [
                "3.45",
                "3.90",
                "2.60",
                "2.63",
                "2.5000",
                "7.5000",
                "2",
                "4"
            ]
        },
        "bet": {
            "type": {
                "id": "3",
                "name": "2X1"
            },
            "single": true,
            "double": true,
            "period": {
                "id": "1",
                "name": "90 \u05d3\u05e7'",
                "mustShow": false
            },
            "1": {
                "current": "2.60",
                "changePercent": 0,
                "won": false
            },
            "X": {
                "current": "2.95",
                "changePercent": 7,
                "won": true
            },
            "2": {
                "current": "2.20",
                "changePercent": -6,
                "won": false
            },
            "description": {
                "prefix": "",
                "value": "\u05d0\u05d5\u05d2\u05e1\u05d1\u05d5\u05e8\u05d2 - \u05d1\u05d5\u05e8\u05d5\u05e1\u05d9\u05d4 \u05de\u05d9\u05e0\u05e9\u05e0\u05d2\u05dc\u05d3\u05d1\u05d0\u05da"
            },
            "openForBets": false
        },
        "isFather": "true",
        "childs": 0,
        "hasExtraData": true,
        "time": "2018-09-01 16:30:00",
        "status": {
            "color": "red",
            "title": "16:30 01.09.2018",
            "description": "\u05d4\u05e1\u05ea\u05d9\u05d9\u05dd"
        },
        "result": "1 - 1",
        "liveThings": {
            "eventsTitle": "\u05d0\u05d9\u05e8\u05d5\u05e2\u05d9\u05dd",
            "events": [
                [
                    "localteam",
                    "24563811",
                    "goal",
                    12,
                    0,
                    "M. Gregoritsch",
                    ""
                ],
                [
                    "localteam",
                    "24563812",
                    "yellowcard",
                    20,
                    0,
                    "P. Max",
                    ""
                ],
                [
                    "visitorteam",
                    "24563813",
                    "yellowcard",
                    24,
                    0,
                    "T. Strobl",
                    ""
                ],
                [
                    "guestteam",
                    0,
                    "sub",
                    46,
                    0,
                    "Denis Zakaria",
                    "Louis Beyer"
                ],
                [
                    "guestteam",
                    0,
                    "sub",
                    46,
                    0,
                    "Alassane Pl\u00e9a",
                    "Raffael"
                ],
                [
                    "visitorteam",
                    "24563816",
                    "goal",
                    68,
                    0,
                    "A. Plea",
                    ""
                ],
                [
                    "localteam",
                    0,
                    "sub",
                    72,
                    0,
                    "Caiuby",
                    "Marco Richter"
                ],
                [
                    "localteam",
                    0,
                    "sub",
                    75,
                    0,
                    "Felix G\u00f6tze",
                    "Ja-Cheol Koo"
                ],
                [
                    "visitorteam",
                    "24563819",
                    "yellowcard",
                    78,
                    0,
                    "F. Johnson",
                    ""
                ],
                [
                    "guestteam",
                    0,
                    "sub",
                    89,
                    0,
                    "Micha\u00ebl Cuisance",
                    "Florian Neuhaus"
                ],
                [
                    "localteam",
                    0,
                    "sub",
                    90,
                    0,
                    "Dong-Won Ji",
                    "Michael Gregoritsch"
                ]
            ],
            "stats": [
                [
                    "\u05d1\u05e2\u05d9\u05d8\u05d5\u05ea",
                    "17",
                    "7"
                ],
                [
                    "\u05d1\u05e2\u05d9\u05d8\u05d5\u05ea \u05dc\u05de\u05e1\u05d2\u05e8\u05ea",
                    "7",
                    "2"
                ],
                [
                    "\u05e2\u05d1\u05d9\u05e8\u05d5\u05ea",
                    "13",
                    "12"
                ],
                [
                    "\u05e7\u05e8\u05e0\u05d5\u05ea",
                    "8",
                    "4"
                ],
                [
                    "\u05e0\u05d1\u05d3\u05dc\u05d9\u05dd",
                    "3",
                    "1"
                ],
                [
                    "\u05d0\u05d7\u05d6\u05e7\u05ea \u05db\u05d3\u05d5\u05e8",
                    "39%",
                    "61%"
                ],
                [
                    "\u05e6\u05d4\u05d5\u05d1\u05d9\u05dd",
                    "1",
                    "2"
                ],
                [
                    "\u05d0\u05d3\u05d5\u05de\u05d9\u05dd",
                    "0",
                    "0"
                ],
                [
                    "\u05d4\u05e6\u05dc\u05d5\u05ea",
                    "0",
                    "6"
                ]
            ]
        },
        "home": {
            "id": "1308",
            "name": "\u05d0\u05d5\u05d2\u05e1\u05d1\u05d5\u05e8\u05d2"
        },
        "guest": {
            "id": "1387",
            "name": "\u05d1\u05d5\u05e8\u05d5\u05e1\u05d9\u05d4 \u05de\u05d9\u05e0\u05e9\u05e0\u05d2\u05dc\u05d3\u05d1\u05d0\u05da"
        }
    },
    {
        "id": "362712",
        "totoId": "487560",
        "infoId": "153770",
        "round": {
            "id": "1835010700",
            "place": "16",
            "active": true
        },
        "sport": {
            "id": "2",
            "name": "\u05db\u05d3\u05d5\u05e8\u05d2\u05dc"
        },
        "country": {
            "id": "645",
            "name": "\u05de\u05d3\u05d9\u05e0\u05d4"
        },
        "league": {
            "name": "\u05dc\u05d9\u05d2\u05d4"
        },
        "tv": {
            "id": null,
            "name": null,
            "link": null
        },
        "ranks": {
            "moment": [
                "-3",
                "-3",
                "-2",
                "2",
                "-1.00",
                "-1",
                "-1",
                "-1",
                "1",
                "-0.33",
                "2",
                "2",
                "1",
                "-1",
                "0.67"
            ],
            "power": [
                "0.10",
                "0.40",
                "-0.33",
                "0.75",
                "-1.00"
            ],
            "scores": [
                "2.55",
                "3.00",
                "2.33",
                "2.25",
                "1.0000",
                "4.5000",
                "2",
                "2"
            ]
        },
        "bet": {
            "type": {
                "id": "3",
                "name": "2X1"
            },
            "single": true,
            "double": true,
            "period": {
                "id": "1",
                "name": "90 \u05d3\u05e7'",
                "mustShow": false
            },
            "1": {
                "current": "2.30",
                "changePercent": -2,
                "won": false
            },
            "X": {
                "current": "2.95",
                "changePercent": 7,
                "won": true
            },
            "2": {
                "current": "2.50",
                "changePercent": -4,
                "won": false
            },
            "description": {
                "prefix": "",
                "value": "\u05e0\u05d9\u05e8\u05e0\u05d1\u05e8\u05d2 - \u05de\u05d9\u05d9\u05e0\u05e5"
            },
            "openForBets": false
        },
        "isFather": "true",
        "childs": 0,
        "hasExtraData": true,
        "time": "2018-09-01 16:30:00",
        "status": {
            "color": "red",
            "title": "16:30 01.09.2018",
            "description": "\u05d4\u05e1\u05ea\u05d9\u05d9\u05dd"
        },
        "result": "1 - 1",
        "liveThings": {
            "eventsTitle": "\u05d0\u05d9\u05e8\u05d5\u05e2\u05d9\u05dd",
            "events": [
                [
                    "visitorteam",
                    "24563861",
                    "goal",
                    25,
                    0,
                    "J. Mateta",
                    ""
                ],
                [
                    "visitorteam",
                    "24563862",
                    "yellowcard",
                    33,
                    0,
                    "M. Niakhate",
                    ""
                ],
                [
                    "guestteam",
                    0,
                    "sub",
                    46,
                    0,
                    "Niko Bungert",
                    "Moussa Niakhat\u00e9"
                ],
                [
                    "localteam",
                    "24563864",
                    "goal",
                    48,
                    0,
                    "M. Ishak",
                    ""
                ],
                [
                    "visitorteam",
                    "24563865",
                    "yellowcard",
                    50,
                    0,
                    "P. Kunde Malong",
                    ""
                ],
                [
                    "localteam",
                    "24563866",
                    "yellowcard",
                    53,
                    0,
                    "O. Petrak",
                    ""
                ],
                [
                    "localteam",
                    0,
                    "sub",
                    65,
                    0,
                    "Eduard L\u00f6wen",
                    "Federico Palacios-Martinez"
                ],
                [
                    "guestteam",
                    0,
                    "sub",
                    67,
                    0,
                    "Jean-Paul Bo\u00ebtius",
                    "Alexandru Maxim"
                ],
                [
                    "guestteam",
                    0,
                    "sub",
                    81,
                    0,
                    "Phillipp Mwene",
                    "Karim Onisiwo"
                ],
                [
                    "localteam",
                    0,
                    "sub",
                    88,
                    0,
                    "Kevin Goden",
                    "Alexander Fuchs"
                ],
                [
                    "localteam",
                    "245638611",
                    "yellowcard",
                    90,
                    1,
                    "H. Behrens",
                    ""
                ]
            ],
            "stats": [
                [
                    "\u05d1\u05e2\u05d9\u05d8\u05d5\u05ea",
                    "19",
                    "5"
                ],
                [
                    "\u05d1\u05e2\u05d9\u05d8\u05d5\u05ea \u05dc\u05de\u05e1\u05d2\u05e8\u05ea",
                    "4",
                    "1"
                ],
                [
                    "\u05e2\u05d1\u05d9\u05e8\u05d5\u05ea",
                    "10",
                    "12"
                ],
                [
                    "\u05e7\u05e8\u05e0\u05d5\u05ea",
                    "5",
                    "1"
                ],
                [
                    "\u05e0\u05d1\u05d3\u05dc\u05d9\u05dd",
                    "0",
                    "1"
                ],
                [
                    "\u05d0\u05d7\u05d6\u05e7\u05ea \u05db\u05d3\u05d5\u05e8",
                    "57%",
                    "43%"
                ],
                [
                    "\u05e6\u05d4\u05d5\u05d1\u05d9\u05dd",
                    "2",
                    "2"
                ],
                [
                    "\u05d0\u05d3\u05d5\u05de\u05d9\u05dd",
                    "0",
                    "0"
                ],
                [
                    "\u05d4\u05e6\u05dc\u05d5\u05ea",
                    "0",
                    "3"
                ]
            ]
        },
        "home": {
            "id": "773",
            "name": "\u05e0\u05d9\u05e8\u05e0\u05d1\u05e8\u05d2"
        },
        "guest": {
            "id": "1366",
            "name": "\u05de\u05d9\u05d9\u05e0\u05e5"
        }
    }
]